{
  "modules": [
    //BL
    {
      "type": "LightYear.JunFuTrans.Modules.BL.ServiceModule, LightYear.JunFuTrans.Modules"
    },
    {
      "type": "LightYear.JunFuTrans.Modules.BL.MapperModule, LightYear.JunFuTrans.Modules"
    },
    //DA
    {
      "type": "LightYear.JunFuTrans.Modules.DA.RepositoriesModule, LightYear.JunFuTrans.Modules"
    },
    {
      "type": "LightYear.JunFuTrans.Modules.DA.LightYearModule, LightYear.JunFuTrans.Modules"
    },
    {
      "type": "LightYear.JunFuTrans.Modules.DA.JunFuDbModule, LightYear.JunFuTrans.Modules"
    },
    {
      "type": "LightYear.JunFuTrans.Modules.DA.JunFuTransDbModule, LightYear.JunFuTrans.Modules"
    },
    {
      "type": "LightYear.JunFuTrans.Modules.DA.JunFuTransReadOnlyDbModule, LightYear.JunFuTrans.Modules"
    }
  ]
}
